…
``` r
filter(zillow, )
```

    ## # A tibble: 149 × 125
    ##    RegionID SizeRank RegionName RegionType StateName State City     Metro       
    ##       <dbl>    <dbl>      <dbl> <chr>      <chr>     <chr> <chr>    <chr>       
    ##  1    62080        4      11368 zip        NY        NY    New York New York-Ne…
    ##  2    62093        7      11385 zip        NY        NY    New York New York-Ne…
    ##  3    62019        9      11208 zip        NY        NY    New York New York-Ne…
    ##  4    62046       16      11236 zip        NY        NY    New York New York-Ne…
    ##  5    61807       17      10467 zip        NY        NY    New York New York-Ne…
    ##  6    62085       18      11373 zip        NY        NY    New York New York-Ne…
    ##  7    62037       19      11226 zip        NY        NY    New York New York-Ne…
    ##  8    62018       20      11207 zip        NY        NY    New York New York-Ne…
    ##  9    61639       29      10025 zip        NY        NY    New York New York-Ne…
    ## 10    62025       32      11214 zip        NY        NY    New York New York-Ne…
    ## # ℹ 139 more rows
    ## # ℹ 117 more variables: CountyName <chr>, `2015-01-31` <dbl>,
    ## #   `2015-02-28` <dbl>, `2015-03-31` <dbl>, `2015-04-30` <dbl>,
    ## #   `2015-05-31` <dbl>, `2015-06-30` <dbl>, `2015-07-31` <dbl>,
    ## #   `2015-08-31` <dbl>, `2015-09-30` <dbl>, `2015-10-31` <dbl>,
    ## #   `2015-11-30` <dbl>, `2015-12-31` <dbl>, `2016-01-31` <dbl>,
    ## #   `2016-02-29` <dbl>, `2016-03-31` <dbl>, `2016-04-30` <dbl>, …
…
